A. Introduction to R • ArtNET2023
…
library(dplyr)

A dplyr ‘tibble’ is like a ‘data.frame’, but more user-friendly

tbl <- tibble(
    x = rnorm(100),
    y = x + rnorm(100)
)

tbl # e.g., only displays the first 10 rows
#> # A tibble: 100 × 2
#>         x      y
#>     <dbl>  <dbl>
#>  1 -0.724 -0.236
#>  2 -0.779 -1.58 
#>  3 -1.48   0.332
#>  4  1.40   0.626
#>  5 -1.14  -1.58 
#>  6  1.87   0.479
#>  7  0.364  0.440
#>  8 -1.11  -0.744
#>  9 -2.45  -3.18 
#> 10  1.20   2.15 
#> # ℹ 90 more rows
…
summarize() – calculate summary statstics for
groups.

left_join(), right_join(),
inner_join() – merge two tibbles based on shared columns,
preserving all rows in the first (left_join()) or second
(right_join()) or both (inner_join())
tibble.

tbl |>
    ## e.g., just rows with non-negative values of x and y
    filter(x > 0, y > 0) |>
    ## add a column
    mutate(distance_from_origin = sqrt(x^2 + y^2))
#> # A tibble: 39 × 3
#>        x     y distance_from_origin
#>    <dbl> <dbl>                <dbl>
#>  1 1.40  0.626                1.53 
#>  2 1.87  0.479                1.93 
#>  3 0.364 0.440                0.571
#>  4 1.20  2.15                 2.47 
#>  5 1.96  2.19                 2.94 
#>  6 0.664 0.359                0.755
#>  7 0.115 0.366                0.384
#>  8 1.44  0.476                1.52 
#>  9 0.442 0.833                0.943
#> 10 0.750 0.601                0.961
#> # ℹ 29 more rows

A ‘classic’ built-in data set – Motor Trend ‘cars’ from 1974…
‘tidyverse’ eschews rownames, so make these a column. Use
group_by() to summarize by group (cyl).
n() is a function from dplyr that returns the number of
records in a group.

mtcars_tbl <-
    mtcars |>
    as_tibble(rownames = "model") |>
    mutate(cyl = factor(cyl))
mtcars_tbl
#> # A tibble: 32 × 12
#>    model         mpg cyl    disp    hp  drat    wt  qsec    vs    am  gear  carb
#>    <chr>       <dbl> <fct> <dbl> <dbl> <dbl> <dbl> <dbl> <dbl> <dbl> <dbl> <dbl>
#>  1 Mazda RX4    21   6      160    110  3.9   2.62  16.5     0     1     4     4
#>  2 Mazda RX4 …  21   6      160    110  3.9   2.88  17.0     0     1     4     4
#>  3 Datsun 710   22.8 4      108     93  3.85  2.32  18.6     1     1     4     1
#>  4 Hornet 4 D…  21.4 6      258    110  3.08  3.22  19.4     1     0     3     1
#>  5 Hornet Spo…  18.7 8      360    175  3.15  3.44  17.0     0     0     3     2
#>  6 Valiant      18.1 6      225    105  2.76  3.46  20.2     1     0     3     1
#>  7 Duster 360   14.3 8      360    245  3.21  3.57  15.8     0     0     3     4
#>  8 Merc 240D    24.4 4      147.    62  3.69  3.19  20       1     0     4     2
#>  9 Merc 230     22.8 4      141.    95  3.92  3.15  22.9     1     0     4     2
#> 10 Merc 280     19.2 6      168.   123  3.92  3.44  18.3     1     0     4     4
#> # ℹ 22 more rows
…
