C. R and Bioconductor for Single Cell Analysis • ARTNet2023
…
is_mitochondrial <-
    rowData(pbmc3k)$Symbol |>
    startsWith("MT-") |>
    which()

Calculate per-cell quality control metrics…

stats <- perCellQCMetrics(pbmc3k, subsets=list(Mito=is_mitochondrial))
stats |> dplyr::as_tibble()
#> # A tibble: 2,700 × 6
#>      sum detected subsets_Mito_sum subsets_Mito_detected subsets_Mito_percent
#>    <dbl>    <int>            <dbl>                 <int>                <dbl>
#>  1  2421      781               73                    10                3.02 
#>  2  4903     1352              186                    10                3.79 
#>  3  3149     1131               28                     8                0.889
#>  4  2639      960               46                    10                1.74 
#>  5   981      522               12                     5                1.22 
#>  6  2164      782               36                     7                1.66 
#>  7  2176      783               83                    10                3.81 
#>  8  2260      790               70                     9                3.10 
#>  9  1276      533               15                     6                1.18 
#> 10  1103      550               32                     7                2.90 
#> # ℹ 2,690 more rows
#> # ℹ 1 more variable: total <dbl>
…
